{"name":"endpoint getting list of users","id":"testing-the-different-endpoints-on-the-reqres.io-testing-page;endpoint-getting-list-of-users","testSteps":[{"number":1,"description":"Given that consumes the endpoints get the list of user","duration":4954,"startTime":"2023-06-24T16:36:31.882638600-06:00[America/Regina]","result":"SUCCESS","precondition":false,"level":0,"children":[{"number":2,"description":"User get lis user","duration":4414,"startTime":"2023-06-24T16:36:32.416636100-06:00[America/Regina]","result":"SUCCESS","precondition":false,"level":1,"children":[{"number":3,"description":"User get status verifcation","duration":4340,"startTime":"2023-06-24T16:36:32.470649300-06:00[America/Regina]","result":"SUCCESS","precondition":false,"level":2,"children":[{"number":4,"description":"GET https://reqres.in/api/users?page\u003d2","duration":1,"startTime":"2023-06-24T16:36:36.750895700-06:00[America/Regina]","result":"SUCCESS","restQuery":{"method":"GET","path":"https://reqres.in/api/users?page\u003d2","content":"","contentType":"application/json","requestHeaders":"Accept\u003d*/*\r\n\t\t\t\tContent-Type\u003dapplication/json","requestCookies":"","responseHeaders":"Date: Sat, 24 Jun 2023 22:36:36 GMT\r\nContent-Type: application/json; charset\u003dutf-8\r\nTransfer-Encoding: chunked\r\nConnection: keep-alive\r\nX-Powered-By: Express\r\nAccess-Control-Allow-Origin: *\r\nEtag: W/\"406-ut0vzoCuidvyMf8arZpMpJ6ZRDw\"\r\nVia: 1.1 vegur\r\nCache-Control: max-age\u003d14400\r\nCF-Cache-Status: HIT\r\nAge: 6802\r\nReport-To: {\"endpoints\":[{\"url\":\"https:\\/\\/a.nel.cloudflare.com\\/report\\/v3?s\u003dCoVY%2B3AXyY4aVW6QUKqbsL96bYzDi9fZYu3LOJxe7YQ5WJpOELpNx3Pk93pgVTjiTNwQojKyJxpJNRaGSq3AcoVWzETxS3zmfTf6Eo%2F0IRsZNh8oFenFxnECpg%3D%3D\"}],\"group\":\"cf-nel\",\"max_age\":604800}\r\nNEL: {\"success_fraction\":0,\"report_to\":\"cf-nel\",\"max_age\":604800}\r\nVary: Accept-Encoding\r\nServer: cloudflare\r\nCF-RAY: 7dc873555914dec7-GUA\r\nContent-Encoding: gzip\r","responseCookies":"\r","responseBody":"{\n    \"page\": 2,\n    \"per_page\": 6,\n    \"total\": 12,\n    \"total_pages\": 2,\n    \"data\": [\n        {\n            \"id\": 7,\n            \"email\": \"michael.lawson@reqres.in\",\n            \"first_name\": \"Michael\",\n            \"last_name\": \"Lawson\",\n            \"avatar\": \"https://reqres.in/img/faces/7-image.jpg\"\n        },\n        {\n            \"id\": 8,\n            \"email\": \"lindsay.ferguson@reqres.in\",\n            \"first_name\": \"Lindsay\",\n            \"last_name\": \"Ferguson\",\n            \"avatar\": \"https://reqres.in/img/faces/8-image.jpg\"\n        },\n        {\n            \"id\": 9,\n            \"email\": \"tobias.funke@reqres.in\",\n            \"first_name\": \"Tobias\",\n            \"last_name\": \"Funke\",\n            \"avatar\": \"https://reqres.in/img/faces/9-image.jpg\"\n        },\n        {\n            \"id\": 10,\n            \"email\": \"byron.fields@reqres.in\",\n            \"first_name\": \"Byron\",\n            \"last_name\": \"Fields\",\n            \"avatar\": \"https://reqres.in/img/faces/10-image.jpg\"\n        },\n        {\n            \"id\": 11,\n            \"email\": \"george.edwards@reqres.in\",\n            \"first_name\": \"George\",\n            \"last_name\": \"Edwards\",\n            \"avatar\": \"https://reqres.in/img/faces/11-image.jpg\"\n        },\n        {\n            \"id\": 12,\n            \"email\": \"rachel.howell@reqres.in\",\n            \"first_name\": \"Rachel\",\n            \"last_name\": \"Howell\",\n            \"avatar\": \"https://reqres.in/img/faces/12-image.jpg\"\n        }\n    ],\n    \"support\": {\n        \"url\": \"https://reqres.in/#support-heading\",\n        \"text\": \"To keep ReqRes free, contributions towards server costs are appreciated!\"\n    }\n}","statusCode":200},"precondition":false,"level":3}]}]}]},{"number":5,"description":"When extract \"Michael\" is data","duration":8,"startTime":"2023-06-24T16:36:36.840898-06:00[America/Regina]","result":"SUCCESS","precondition":false,"level":0},{"number":6,"description":"Then valid that is correct last name \"Lawson\"","duration":7,"startTime":"2023-06-24T16:36:36.851905100-06:00[America/Regina]","result":"SUCCESS","precondition":false,"level":0}],"userStory":{"id":"testing-the-different-endpoints-on-the-reqres.io-testing-page","storyName":"testing the different endpoints on the reqres.io testing page","displayName":"testing the different endpoints on the reqres.io testing page","path":"reqres_general_services.feature","type":"feature","qualifiedTag":{"name":"testing the different endpoints on the reqres.io testing page","type":"feature","displayName":"testing the different endpoints on the reqres.io testing page"}},"featureTag":{"name":"testing the different endpoints on the reqres.io testing page","type":"feature","displayName":"testing the different endpoints on the reqres.io testing page"},"title":"endpoint getting list of users","description":"","tags":[{"name":"ListUser","type":"tag","displayName":"ListUser"},{"name":"Windows","type":"context","displayName":"Windows"},{"name":"testing the different endpoints on the reqres.io testing page","type":"feature","displayName":"testing the different endpoints on the reqres.io testing page"}],"allTags":[{"name":"ListUser","type":"tag","displayName":"ListUser"},{"name":"Windows","type":"context","displayName":"Windows"},{"name":"testing the different endpoints on the reqres.io testing page","type":"feature","displayName":"testing the different endpoints on the reqres.io testing page"}],"startTime":"2023-06-24T16:36:31.573658600-06:00[America/Regina]","duration":5291,"projectKey":"","isManualTestingUpToDate":false,"context":"windows","manual":false,"testSource":"Cucumber","actors":[{"name":"User","can":["browse the web"]}],"result":"SUCCESS"}